<?xml version="1.0" encoding="UTF-8" standalone="no"?>
<svg
   id="svg2"
   version="1.1"
   viewBox="0 0 173 56.000004"
   sodipodi:docname="plasmoidheading.svg"
   inkscape:version="1.1 (1:1.1+202105261517+ce6663b3b7)"
   xmlns:inkscape="http://www.inkscape.org/namespaces/inkscape"
   xmlns:sodipodi="http://sodipodi.sourceforge.net/DTD/sodipodi-0.dtd"
   xmlns="http://www.w3.org/2000/svg"
   xmlns:svg="http://www.w3.org/2000/svg">
  <defs
     id="defs50" />
  <sodipodi:namedview
     id="namedview48"
     pagecolor="#ffffff"
     bordercolor="#666666"
     borderopacity="1.0"
     inkscape:pageshadow="2"
     inkscape:pageopacity="0.0"
     inkscape:pagecheckerboard="0"
     showgrid="false"
     inkscape:zoom="7.5562581"
     inkscape:cx="71.265432"
     inkscape:cy="14.292789"
     inkscape:window-width="1920"
     inkscape:window-height="1007"
     inkscape:window-x="0"
     inkscape:window-y="0"
     inkscape:window-maximized="1"
     inkscape:current-layer="svg2" />
  <style
     id="current-color-scheme"
     type="text/css">.ColorScheme-Text {
            color:#232629;
        }
        .ColorScheme-Background {
            color:#eff0f1;
        }</style>
  <path
     id="hint-stretch-borders"
     d="m-7-7h5v5h-5z"
     opacity=".6" />
  <path
     id="header-center"
     class="ColorScheme-Background"
     d="m19 12h32v32h-32z"
     fill="currentColor"
     opacity=".75" />
  <path
     id="header-right"
     class="ColorScheme-Background"
     d="m51 12h6v32h-6z"
     fill="currentColor"
     opacity=".75" />
  <g
     id="header-bottom"
     fill="currentColor">
    <path
       id="rect3152"
       class="ColorScheme-Background"
       transform="rotate(90)"
       d="m44-51h6v32h-6z"
       opacity=".75"
       fill="currentColor" />
    <path
       id="rect3154"
       class="ColorScheme-Text"
       transform="rotate(90)"
       d="m49-51h1v32h-1z"
       opacity=".15"
       fill="currentColor" />
  </g>
  <path
     id="header-left"
     class="ColorScheme-Background"
     transform="scale(-1)"
     d="m-19-44h6v32h-6z"
     fill="currentColor"
     opacity=".75" />
  <g
     id="header-bottomright"
     fill="currentColor">
    <path
       id="path3176"
       class="ColorScheme-Background"
       d="m57 44h-6v6h6v-5z"
       opacity=".75"
       fill="currentColor" />
    <path
       id="path3178"
       class="ColorScheme-Text"
       d="m57 49h-6v1h6c0-1-2e-5 0 0-1z"
       fill-rule="evenodd"
       opacity=".15"
       fill="correntColor" />
  </g>
  <g
     id="header-bottomleft"
     fill="currentColor">
    <path
       id="path3182"
       class="ColorScheme-Background"
       d="m19 50v-6h-6v6c6 4e-5 0 0 4 0h1z"
       opacity=".75"
       fill="currentColor" />
    <path
       id="path3184"
       class="ColorScheme-Text"
       d="m19 50v-1h-4l-2-2e-5v1l2 2e-5h1z"
       fill-rule="evenodd"
       opacity=".15"
       fill="currentColor" />
  </g>
  <path
     id="footer-center"
     class="ColorScheme-Background"
     transform="scale(1 -1)"
     d="m67-44h32v32h-32z"
     fill="currentColor"
     opacity=".75" />
  <path
     id="footer-right"
     class="ColorScheme-Background"
     transform="scale(1 -1)"
     d="m99-44h6v32h-6z"
     fill="currentColor"
     opacity=".75" />
  <path
     id="footer-bottom"
     class="ColorScheme-Background"
     transform="matrix(0 1 1 0 0 0)"
     d="m44 67h6v32h-6z"
     fill="currentColor"
     opacity=".75" />
  <g
     id="footer-top"
     fill="currentColor">
    <path
       id="rect3152-0"
       class="ColorScheme-Background"
       transform="matrix(0 -1 -1 0 0 0)"
       d="m-12-99h6v32h-6z"
       opacity=".75"
       fill="currentColor" />
    <path
       id="rect3154-9"
       class="ColorScheme-Text"
       transform="matrix(0 -1 -1 0 0 0)"
       d="m-7-99h1v32h-1z"
       opacity=".15"
       fill="currentColor" />
  </g>
  <path
     id="footer-left"
     class="ColorScheme-Background"
     transform="scale(-1 1)"
     d="m-67 12h6v32h-6z"
     fill="currentColor"
     opacity=".75" />
  <g
     id="footer-topright"
     fill="currentColor">
    <path
       id="path3176-6"
       class="ColorScheme-Background"
       d="m105 12h-6v-6h6v5z"
       opacity=".75"
       fill="currentColor" />
    <path
       id="path3178-2"
       class="ColorScheme-Text"
       d="m105 7h-6v-1h6c0 1-2e-5 0 0 1z"
       fill-rule="evenodd"
       opacity=".15"
       fill="currentColor" />
  </g>
  <g
     id="footer-topleft"
     fill="currentColor">
    <path
       id="path3182-1"
       class="ColorScheme-Background"
       d="m67 6v6h-6v-6c6-4e-5 0 0 4 0h1z"
       opacity=".75"
       fill="currentColor" />
    <path
       id="path3184-8"
       class="ColorScheme-Text"
       d="m67 6v1h-4l-2 2e-5v-1l2-2e-5h1z"
       fill-rule="evenodd"
       opacity=".15"
       fill="currentColor" />
  </g>
  <path
     id="footer-bottomleft"
     class="ColorScheme-Background"
     d="m64 50c-2 0-3-1-3-3v-3h6v6h-1 1z"
     fill="currentColor"
     opacity=".75" />
  <path
     id="footer-bottomright"
     class="ColorScheme-Background"
     d="m99 50v-6h6v3c0 2-1 3-3 3h-2z"
     fill="currentColor"
     opacity=".75" />
  <path
     id="hint-top-margin"
     d="m33 12h4v6h-4z"
     fill="#f0f" />
  <path
     id="hint-bottom-margin"
     d="m33 38h4v6h-4z"
     fill="#f0f" />
  <path
     id="hint-right-margin"
     transform="rotate(90)"
     d="m26-51h4v6h-4z"
     fill="#f0f" />
  <path
     id="hint-left-margin"
     transform="rotate(90)"
     d="m26-25h4v6h-4z"
     fill="#f0f" />
  <g
     id="header-topright">
    <path
       id="path1785"
       class="ColorScheme-Background"
       d="m53 6.0000039c2.182709 0.0672 3.932783 1.8172999 4 4.0000001v2h-6v-6.0000001z"
       fill="currentColor"
       opacity=".75"
       stroke-width="2" />
    <path
       id="path5756"
       class="ColorScheme-ViewBackground"
       d="m51 7v-1h2c2.371206 0 4 2.2229567 4 4 0-1.7884968-1.622781-3-4-3z"
       fill="currentColor" />
    <path
       id="path1154"
       d="m51 7v-1h2c2.371206 0 4 2.2229567 4 4 0-1.7884968-1.622781-3-4-3z"
       fill="#fff"
       fill-opacity=".15000001" />
  </g>
  <g
     id="header-topleft">
    <path
       id="path1780"
       class="ColorScheme-Background"
       d="m17 6.0000038c-2.182709 0.0672-3.932783 1.8173-4 4.0000002v2h6v-6.0000002z"
       fill="currentColor"
       opacity=".75"
       stroke-width="2" />
    <path
       id="path5637"
       class="ColorScheme-ViewBackground"
       d="m19 7v-1h-2c-2.371206 0-4 2.2229567-4 4 0-1.7884968 1.622781-3 4-3z"
       fill="currentColor" />
    <path
       id="path1154-3"
       d="m19 7v-1h-2c-2.371206 0-4 2.2229567-4 4 0-1.7884968 1.622781-3 4-3z"
       fill="#fff"
       fill-opacity=".15000001" />
  </g>
  <g
     id="header-top">
    <path
       id="path1066"
       class="ColorScheme-Background"
       transform="rotate(-90)"
       d="m-12 19h6v32h-6z"
       fill="currentColor"
       opacity=".75" />
    <rect
       id="rect4495"
       class="ColorScheme-ViewBackground"
       x="19"
       y="6"
       width="32"
       height="1"
       ry="0"
       fill="currentColor" />
    <rect
       id="rect934"
       x="19"
       y="6"
       width="32"
       height="1"
       ry="0"
       fill="#fff"
       fill-opacity=".15"
       stroke-linecap="round"
       stroke-linejoin="bevel"
       stroke-width="1.00157" />
  </g>
</svg>
